Date,Close
2010-01-04,72.3145751953125
2010-01-05,71.20112609863281
2010-01-06,72.110595703125
2010-01-07,71.2181396484375
2010-01-08,72.89254760742188
2010-01-11,73.26652526855469
2010-01-12,76.07139587402344
2010-01-13,75.80790710449219
2010-01-14,77.2868423461914
2010-01-15,77.46533966064453
2010-01-19,78.00930786132812
2010-01-20,75.96089935302734
2010-01-21,76.85334777832031
2010-01-22,74.94095611572266
2010-01-25,74.54997253417969
2010-01-26,73.75950622558594
2010-01-27,67.80130004882812
2010-01-28,66.0163803100586
2010-01-29,65.4468994140625
2010-02-01,67.94579315185547
2010-02-02,66.4498519897461
2010-02-03,62.46354293823242
2010-02-04,61.01011657714844
2010-02-05,63.500492095947266
2010-02-08,61.9195556640625
2010-02-09,63.40699005126953
2010-02-10,64.33345794677734
2010-02-11,64.59693908691406
2010-02-12,65.48941040039062
2010-02-16,64.60543060302734
2010-02-17,63.02451705932617
2010-02-18,62.421051025390625
2010-02-19,62.34453201293945
2010-02-22,61.98756408691406
2010-02-23,60.81462860107422
2010-02-24,63.17749786376953
2010-02-25,62.81202697753906
2010-02-26,63.60249710083008
2010-03-01,62.591041564941406
2010-03-02,63.254005432128906
2010-03-03,65.39591217041016
2010-03-04,64.10395812988281
2010-03-05,65.39591217041016
2010-03-08,66.245849609375
2010-03-09,65.16641998291016
2010-03-10,64.90292358398438
2010-03-11,65.39591217041016
2010-03-12,65.43839263916016
2010-03-15,66.37335968017578
2010-03-16,67.5123062133789
2010-03-17,67.40181732177734
2010-03-18,66.9853286743164
2010-03-19,67.62279510498047
2010-03-22,68.15826416015625
2010-03-23,69.99417877197266
2010-03-24,69.33971405029297
2010-03-25,68.27726745605469
2010-03-26,69.23844909667969
2010-03-29,69.4356689453125
2010-03-30,69.66717529296875
2010-03-31,68.95550537109375
2010-04-01,69.01553344726562
2010-04-05,69.67576599121094
2010-04-06,69.31562805175781
2010-04-07,68.52677917480469
2010-04-08,68.1495132446289
2010-04-09,68.52677917480469
2010-04-12,68.20952606201172
2010-04-13,67.76364135742188
2010-04-14,68.87833404541016
2010-04-15,68.64681243896484
2010-04-16,68.05519104003906
2010-04-19,67.78938293457031
2010-04-20,67.53215026855469
2010-04-21,66.95765686035156
2010-04-22,66.19451904296875
2010-04-23,66.57180786132812
2010-04-26,67.58358764648438
2010-04-27,66.01446533203125
2010-04-28,65.88585662841797
2010-04-29,66.97481536865234
2010-04-30,66.10021209716797
2010-05-03,66.61469268798828
2010-05-04,65.2427749633789
2010-05-05,64.96839141845703
2010-05-06,64.41963195800781
2010-05-07,64.21385955810547
2010-05-10,65.80867767333984
2010-05-11,66.41748046875
2010-05-12,67.1720199584961
2010-05-13,65.83441162109375
2010-05-14,64.7197494506836
2010-05-17,65.9201431274414
2010-05-18,64.79690551757812
2010-05-19,64.91694641113281
2010-05-20,63.450740814208984
2010-05-21,64.81404876708984
2010-05-24,63.87945556640625
2010-05-25,63.52789306640625
2010-05-26,61.744415283203125
2010-05-27,63.227783203125
2010-05-28,62.02737045288086
2010-06-01,61.32426071166992
2010-06-02,61.77870178222656
2010-06-03,62.35319900512695
2010-06-04,60.96413803100586
2010-06-07,59.56650924682617
2010-06-08,60.34678649902344
2010-06-09,59.5750846862793
2010-06-10,60.93840789794922
2010-06-11,60.715476989746094
2010-06-14,60.89553451538086
2010-06-15,62.62757873535156
2010-06-16,62.40464401245117
2010-06-17,62.00162887573242
2010-06-18,61.26424789428711
2010-06-21,61.615806579589844
2010-06-22,61.10990524291992
2010-06-23,60.74978256225586
2010-06-24,60.3896484375
2010-06-25,60.02096176147461
2010-06-28,59.549354553222656
2010-06-29,58.717647552490234
2010-06-30,58.79480743408203
2010-07-01,58.90627670288086
2010-07-02,58.52900314331055
2010-07-06,60.04667282104492
2010-07-07,60.87839889526367
2010-07-08,61.0584602355957
2010-07-09,60.93840789794922
2010-07-12,60.93840789794922
2010-07-13,61.495765686035156
2010-07-14,62.88481140136719
2010-07-15,62.078819274902344
2010-07-16,60.66404724121094
2010-07-19,61.06703567504883
2010-07-20,60.183876037597656
2010-07-21,59.30928421020508
2010-07-22,60.65546417236328
2010-07-23,61.14419937133789
2010-07-26,60.792667388916016
2010-07-27,59.93521499633789
2010-07-28,59.83231735229492
2010-07-29,59.995235443115234
2010-07-30,60.218170166015625
2010-08-02,61.770145416259766
2010-08-03,62.396080017089844
2010-08-04,63.66508102416992
2010-08-05,61.94162368774414
2010-08-06,62.18170166015625
2010-08-09,61.795860290527344
2010-08-10,61.624366760253906
2010-08-11,59.86661911010742
2010-08-12,60.14958190917969
2010-08-13,59.90949249267578
2010-08-16,60.432518005371094
2010-08-17,60.578285217285156
2010-08-18,60.56113815307617
2010-08-19,61.1013298034668
2010-08-20,60.3896484375
2010-08-23,59.98664855957031
2010-08-24,59.815162658691406
2010-08-25,59.2149543762207
2010-08-26,58.92342758178711
2010-08-27,59.47219467163086
2010-08-30,58.52042770385742
2010-08-31,58.168880462646484
2010-09-01,59.01774597167969
2010-09-02,58.494712829589844
2010-09-03,59.77229690551758
2010-09-07,59.36928939819336
2010-09-08,59.26641845703125
2010-09-09,60.621158599853516
2010-09-10,60.53541946411133
2010-09-13,60.269622802734375
2010-09-14,59.84947204589844
2010-09-15,61.06703567504883
2010-09-16,61.50433349609375
2010-09-17,61.31568145751953
2010-09-20,61.89018630981445
2010-09-21,61.4185791015625
2010-09-22,61.349998474121094
2010-09-23,60.85266876220703
2010-09-24,62.64472961425781
2010-09-27,62.58939743041992
2010-09-28,63.23777389526367
2010-09-29,63.10810089111328
2010-09-30,61.88051986694336
2010-10-01,62.07070541381836
2010-10-04,61.19756317138672
2010-10-05,62.26953125
2010-10-06,61.54336166381836
2010-10-07,61.508785247802734
2010-10-08,61.439613342285156
2010-10-11,61.26670837402344
2010-10-12,60.55784606933594
2010-10-13,60.77396011352539
2010-10-14,62.56346893310547
2010-10-15,61.81999206542969
2010-10-18,62.745018005371094
2010-10-19,61.68168258666992
2010-10-20,61.97561264038086
2010-10-21,61.91509246826172
2010-10-22,61.9842529296875
2010-10-25,61.690311431884766
2010-10-26,61.26670837402344
2010-10-27,61.301300048828125
2010-10-28,61.49148941040039
2010-10-29,61.223487854003906
2010-11-01,60.194740295410156
2010-11-02,60.71345520019531
2010-11-03,61.12840270996094
2010-11-04,62.874691009521484
2010-11-05,62.796878814697266
2010-11-08,63.74781799316406
2010-11-09,63.194549560546875
2010-11-10,64.83708190917969
2010-11-11,65.05320739746094
2010-11-12,65.2779769897461
2010-11-15,65.40765380859375
2010-11-16,64.77656555175781
2010-11-17,65.57190704345703
2010-11-18,66.81678771972656
2010-11-19,67.83687591552734
2010-11-22,67.83687591552734
2010-11-23,66.93780517578125
2010-11-24,68.23454284667969
2010-11-26,67.74177551269531
2010-11-29,67.6467056274414
2010-11-30,67.1625747680664
2010-12-01,68.7964859008789
2010-12-02,68.31233978271484
2010-12-03,68.33828735351562
2010-12-06,68.41610717773438
2010-12-07,68.00978088378906
2010-12-08,67.74177551269531
2010-12-09,67.40463256835938
2010-12-10,66.7908706665039
2010-12-13,67.41328430175781
2010-12-14,67.46515655517578
2010-12-15,67.55159759521484
2010-12-16,67.68991088867188
2010-12-17,66.98102569580078
2010-12-20,66.7649154663086
2010-12-21,67.43922424316406
2010-12-22,67.1625747680664
2010-12-23,67.13665008544922
2010-12-27,67.34413146972656
2010-12-28,67.6467056274414
2010-12-29,68.38151550292969
2010-12-30,67.73313903808594
2010-12-31,67.97518157958984
2011-01-03,68.66679382324219
2011-01-04,69.03853607177734
2011-01-05,69.33244323730469
2011-01-06,70.49088287353516
2011-01-07,71.28622436523438
2011-01-10,71.55421447753906
2011-01-11,72.08154296875
2011-01-12,72.99791717529297
2011-01-13,73.81916809082031
2011-01-14,74.31194305419922
2011-01-18,73.63764953613281
2011-01-19,72.61754608154297
2011-01-20,72.06425476074219
2011-01-21,70.89720153808594
2011-01-24,72.18528747558594
2011-01-25,72.49650573730469
2011-01-26,71.13925170898438
2011-01-27,72.21121978759766
2011-01-28,70.33527374267578
2011-01-31,71.0441665649414
2011-02-01,72.00373840332031
2011-02-02,73.4820327758789
2011-02-03,73.20539855957031
2011-02-04,73.26589965820312
2011-02-07,73.59440612792969
2011-02-08,76.56829071044922
2011-02-09,77.4846420288086
2011-02-10,76.78439331054688
2011-02-11,77.84772491455078
2011-02-14,80.23373413085938
2011-02-15,80.3720703125
2011-02-16,80.98583221435547
2011-02-17,80.78699493408203
2011-02-18,80.57088470458984
2011-02-22,78.40100860595703
2011-02-23,77.95146942138672
2011-02-24,77.89095306396484
2011-02-25,79.3173599243164
2011-02-28,80.65734100341797
2011-03-01,80.25967407226562
2011-03-02,79.12716674804688
2011-03-03,79.69774627685547
2011-03-04,78.66034698486328
2011-03-07,76.95730590820312
2011-03-08,77.79586029052734
2011-03-09,77.40682983398438
2011-03-10,75.66056060791016
2011-03-11,74.04393768310547
2011-03-14,70.65513610839844
2011-03-15,70.36119842529297
2011-03-16,69.51400756835938
2011-03-17,70.94042205810547
2011-03-18,70.50816345214844
2011-03-21,72.40141296386719
2011-03-22,71.75304412841797
2011-03-23,71.00956726074219
2011-03-24,70.18830108642578
2011-03-25,69.81656646728516
2011-03-28,70.28514099121094
2011-03-29,69.55219268798828
2011-03-30,70.64289093017578
2011-03-31,70.02338409423828
2011-04-01,70.25023651123047
2011-04-04,69.35150146484375
2011-04-05,67.73725128173828
2011-04-06,67.49293518066406
2011-04-07,67.37078094482422
2011-04-08,67.95539855957031
2011-04-11,66.75125122070312
2011-04-12,67.3620376586914
2011-04-13,68.04266357421875
2011-04-14,67.95539855957031
2011-04-15,67.74596405029297
2011-04-18,67.40567779541016
2011-04-19,66.41968536376953
2011-04-20,67.41439819335938
2011-04-21,67.88558959960938
2011-04-25,69.377685546875
2011-04-26,68.63599395751953
2011-04-27,68.31314086914062
2011-04-28,69.36894989013672
2011-04-29,69.5260009765625
2011-05-02,69.94485473632812
2011-05-03,69.53474426269531
2011-05-04,69.5958251953125
2011-05-05,69.42131042480469
2011-05-06,69.0199203491211
2011-05-09,69.24678802490234
2011-05-10,70.69524383544922
2011-05-11,71.07919311523438
2011-05-12,72.97264099121094
2011-05-13,72.75448608398438
2011-05-16,71.73359680175781
2011-05-17,71.00064849853516
2011-05-18,71.01809692382812
2011-05-19,70.41602325439453
2011-05-20,69.77031707763672
2011-05-23,69.40385437011719
2011-05-24,69.70924377441406
2011-05-25,71.34966278076172
2011-05-26,71.73359680175781
2011-05-27,71.7772216796875
2011-05-31,72.67597198486328
2011-06-01,71.11406707763672
2011-06-02,70.59927368164062
2011-06-03,70.25023651123047
2011-06-06,69.73542022705078
2011-06-07,71.17515563964844
2011-06-08,71.33222198486328
2011-06-09,71.48054504394531
2011-06-10,70.38985443115234
2011-06-13,69.5609130859375
2011-06-14,70.18916320800781
2011-06-15,69.35150146484375
2011-06-16,69.34278869628906
2011-06-17,69.377685546875
2011-06-20,69.91867065429688
2011-06-21,70.46837615966797
2011-06-22,70.41602325439453
2011-06-23,70.52073669433594
2011-06-24,70.93083953857422
2011-06-27,69.578369140625
2011-06-28,69.87503814697266
2011-06-29,71.14024353027344
2011-06-30,71.9168472290039
2011-07-01,72.8155746459961
2011-07-05,72.94646453857422
2011-07-06,73.53107452392578
2011-07-07,73.85393524169922
2011-07-08,73.64451599121094
2011-07-11,73.03372192382812
2011-07-12,72.98136901855469
2011-07-13,73.88883209228516
2011-07-14,73.53982543945312
2011-07-15,73.16460418701172
2011-07-18,72.737060546875
2011-07-19,73.5049057006836
2011-07-20,73.58344268798828
2011-07-21,74.57817077636719
2011-07-22,74.17678833007812
2011-07-25,73.40890502929688
2011-07-26,73.38274383544922
2011-07-27,71.69869995117188
2011-07-28,71.0530014038086
2011-07-29,71.48054504394531
2011-08-01,71.34966278076172
2011-08-02,70.93083953857422
2011-08-03,70.9046630859375
2011-08-04,67.5452880859375
2011-08-05,67.56273651123047
2011-08-08,64.32551574707031
2011-08-09,67.37078094482422
2011-08-10,64.07246398925781
2011-08-11,65.56456756591797
2011-08-12,64.91886138916016
2011-08-15,66.41968536376953
2011-08-16,65.80887603759766
2011-08-17,65.16319274902344
2011-08-18,62.44951248168945
2011-08-19,61.690364837646484
2011-08-22,61.55076217651367
2011-08-23,63.59256362915039
2011-08-24,62.89451217651367
2011-08-25,62.18773651123047
2011-08-26,62.519309997558594
2011-08-29,62.91196060180664
2011-08-30,61.89979553222656
2011-08-31,62.685096740722656
2011-09-01,62.10047149658203
2011-09-02,60.50367736816406
2011-09-06,59.570037841796875
2011-09-07,60.948692321777344
2011-09-08,60.52985763549805
2011-09-09,59.15993881225586
2011-09-12,59.482784271240234
2011-09-13,60.25063705444336
2011-09-14,60.704376220703125
2011-09-15,62.13538360595703
2011-09-16,61.786346435546875
2011-09-19,61.812522888183594
2011-09-20,61.454769134521484
2011-09-21,59.59621810913086
2011-09-22,58.43569564819336
2011-09-23,59.20357131958008
2011-09-26,60.00631332397461
2011-09-27,60.4827995300293
2011-09-28,60.78169631958008
2011-09-29,61.72234344482422
2011-09-30,60.008079528808594
2011-10-03,58.874019622802734
2011-10-04,59.085018157958984
2011-10-05,58.62788391113281
2011-10-06,59.076210021972656
2011-10-07,58.13557434082031
2011-10-10,59.779502868652344
2011-10-11,59.17292404174805
2011-10-12,59.60369110107422
2011-10-13,59.515777587890625
2011-10-14,59.30479431152344
2011-10-17,59.18171310424805
2011-10-18,59.885005950927734
2011-10-19,59.19929504394531
2011-10-20,58.71578598022461
2011-10-21,59.43665313720703
2011-10-24,59.80587387084961
2011-10-25,58.30260467529297
2011-10-26,58.80369186401367
2011-10-27,60.88719940185547
2011-10-28,61.23883819580078
2011-10-31,58.64545822143555
2011-11-01,57.37074279785156
2011-11-02,57.00151062011719
2011-11-03,57.48503112792969
2011-11-04,57.30042266845703
2011-11-07,57.56415557861328
2011-11-08,56.79932403564453
2011-11-09,56.27186584472656
2011-11-10,56.658668518066406
2011-11-11,56.36856460571289
2011-11-14,56.53559112548828
2011-11-15,56.210323333740234
2011-11-16,55.858673095703125
2011-11-17,56.55317306518555
2011-11-18,55.87626266479492
2011-11-21,53.79277038574219
2011-11-22,54.45209884643555
2011-11-23,53.0894775390625
2011-11-25,54.6015510559082
2011-11-28,56.41251754760742
2011-11-29,56.60591506958008
2011-11-30,57.942169189453125
2011-12-01,57.775142669677734
2011-12-02,58.21469497680664
2011-12-05,59.82346725463867
2011-12-06,58.99710464477539
2011-12-07,60.17510986328125
2011-12-08,59.01468276977539
2011-12-09,59.95532989501953
2011-12-12,58.45205307006836
2011-12-13,57.70480728149414
2011-12-14,57.3355827331543
2011-12-15,57.46745681762695
2011-12-16,55.99934387207031
2011-12-19,55.65648651123047
2011-12-20,56.6938362121582
2011-12-21,56.48284149169922
2011-12-22,56.70262145996094
2011-12-23,57.09822082519531
2011-12-27,56.579551696777344
2011-12-28,56.48284149169922
2011-12-29,57.37074279785156
2011-12-30,58.13557434082031
2012-01-03,59.58610534667969
2012-01-04,60.157527923583984
2012-01-05,60.324562072753906
2012-01-06,60.22785949707031
2012-01-09,60.148738861083984
2012-01-10,60.36851501464844
2012-01-11,60.30697250366211
2012-01-12,59.90258026123047
2012-01-13,60.008079528808594
2012-01-17,59.4630241394043
2012-01-18,59.64765167236328
2012-01-19,60.73774337768555
2012-01-20,62.76848602294922
2012-01-23,62.54871368408203
2012-01-24,63.586055755615234
2012-01-25,65.2475814819336
2012-01-26,65.5728530883789
2012-01-27,64.6761474609375
2012-01-30,64.27175903320312
2012-01-31,64.59703063964844
2012-02-01,66.1091079711914
2012-02-02,67.01459503173828
2012-02-03,67.22557067871094
2012-02-06,68.315673828125
2012-02-07,69.9859848022461
2012-02-08,71.25190734863281
2012-02-09,71.10245513916016
2012-02-10,68.91346740722656
2012-02-13,69.37061309814453
2012-02-14,70.32884216308594
2012-02-15,72.57936096191406
2012-02-16,73.53759002685547
2012-02-17,73.28265380859375
2012-02-21,73.1595687866211
2012-02-22,74.11780548095703
2012-02-23,73.90680694580078
2012-02-24,74.31999969482422
2012-02-27,73.4936294555664
2012-02-28,74.41670227050781
2012-02-29,72.71121978759766
2012-03-01,73.02770233154297
2012-03-02,71.70903778076172
2012-03-05,71.41893768310547
2012-03-06,70.46070098876953
2012-03-07,70.9618148803711
2012-03-08,72.54417419433594
2012-03-09,73.6782455444336
2012-03-12,72.77276611328125
2012-03-13,73.81891632080078
2012-03-14,73.44088745117188
2012-03-15,75.02327728271484
2012-03-16,75.07603454589844
2012-03-19,74.93537902832031
2012-03-20,74.42548370361328
2012-03-21,73.81011199951172
2012-03-22,74.2232894897461
2012-03-23,73.63429260253906
2012-03-26,74.15296936035156
2012-03-27,75.91703796386719
2012-03-28,76.85668182373047
2012-03-29,76.28934478759766
2012-03-30,76.96306610107422
2012-04-02,76.84782409667969
2012-04-03,76.43118286132812
2012-04-04,74.10863494873047
2012-04-05,74.33912658691406
2012-04-09,72.42434692382812
2012-04-10,71.75064849853516
2012-04-11,73.14238739013672
2012-04-12,73.58563232421875
2012-04-13,72.17613220214844
2012-04-16,72.01658630371094
2012-04-17,72.19387817382812
2012-04-18,72.29139709472656
2012-04-19,72.50413513183594
2012-04-20,71.39604949951172
2012-04-23,70.41207122802734
2012-04-24,71.5644760131836
2012-04-25,72.1229476928711
2012-04-26,72.53960418701172
2012-04-27,72.94737243652344
2012-04-30,72.49527740478516
2012-05-01,71.05032348632812
2012-05-02,70.78439331054688
2012-05-03,70.22591400146484
2012-05-04,69.70289611816406
2012-05-07,69.7560806274414
2012-05-08,69.29512786865234
2012-05-09,71.4049301147461
2012-05-10,70.67801666259766
2012-05-11,71.5467529296875
2012-05-14,70.65142059326172
2012-05-15,69.41036987304688
2012-05-16,68.00975036621094
2012-05-17,68.44412231445312
2012-05-18,67.4246826171875
2012-05-21,67.99200439453125
2012-05-22,68.45298767089844
2012-05-23,68.47958374023438
2012-05-24,68.43524932861328
2012-05-25,68.0806655883789
2012-05-29,68.30229949951172
2012-05-30,67.67288208007812
2012-05-31,68.16044616699219
2012-06-01,66.31659698486328
2012-06-04,66.14817810058594
2012-06-05,66.493896484375
2012-06-06,68.1427230834961
2012-06-07,68.10725402832031
2012-06-08,67.82359313964844
2012-06-11,67.00804138183594
2012-06-12,67.80586242675781
2012-06-13,67.4955825805664
2012-06-14,67.39808654785156
2012-06-15,67.8147201538086
2012-06-18,68.12499237060547
2012-06-19,68.16044616699219
2012-06-20,68.59481048583984
2012-06-21,67.60198211669922
2012-06-22,68.0806655883789
2012-06-25,67.4512710571289
2012-06-26,67.63744354248047
2012-06-27,67.61969757080078
2012-06-28,69.17989349365234
2012-06-29,71.34286499023438
2012-07-02,71.0769271850586
2012-07-03,71.69745635986328
2012-07-05,71.46697235107422
2012-07-06,71.04146575927734
2012-07-09,70.33229064941406
2012-07-10,68.78097534179688
2012-07-11,68.57708740234375
2012-07-12,67.29171752929688
2012-07-13,67.85905456542969
2012-07-16,67.57538604736328
2012-07-17,67.26510620117188
2012-07-18,67.7969970703125
2012-07-19,68.03633880615234
2012-07-20,66.60026550292969
2012-07-23,65.80245208740234
2012-07-24,64.69436645507812
2012-07-25,64.27772521972656
2012-07-26,65.69608306884766
2012-07-27,67.4512710571289
2012-07-30,66.90165710449219
2012-07-31,67.82359313964844
2012-08-01,68.00088500976562
2012-08-02,68.28455352783203
2012-08-03,71.85701751708984
2012-08-06,71.58220672607422
2012-08-07,72.41548919677734
2012-08-08,71.75064849853516
2012-08-09,72.30023956298828
2012-08-10,72.23818969726562
2012-08-13,71.79496765136719
2012-08-14,71.21875
2012-08-15,71.10352325439453
2012-08-16,72.96510314941406
2012-08-17,73.1955795288086
2012-08-20,72.39774322509766
2012-08-21,72.60164642333984
2012-08-22,73.09806823730469
2012-08-23,72.74347686767578
2012-08-24,73.11580657958984
2012-08-27,72.32683563232422
2012-08-28,71.7063217163086
2012-08-29,71.8038330078125
2012-08-30,71.12125396728516
2012-08-31,70.58051300048828
2012-09-04,69.79155731201172
2012-09-05,69.53447723388672
2012-09-06,71.2010269165039
2012-09-07,72.39774322509766
2012-09-10,72.41548919677734
2012-09-11,72.06977081298828
2012-09-12,72.75234985351562
2012-09-13,73.5235824584961
2012-09-14,73.736328125
2012-09-17,72.16728210449219
2012-09-18,72.17613220214844
2012-09-19,72.849853515625
2012-09-20,72.63711547851562
2012-09-21,72.24706268310547
2012-09-24,71.360595703125
2012-09-25,71.94974517822266
2012-09-26,70.33158874511719
2012-09-27,71.74413299560547
2012-09-28,70.18855285644531
2012-10-01,68.90116882324219
2012-10-02,68.70450592041016
2012-10-03,68.9190673828125
2012-10-04,70.60873413085938
2012-10-05,69.46440887451172
2012-10-08,69.14256286621094
2012-10-09,67.99822998046875
2012-10-10,66.60358428955078
2012-10-11,66.9164810180664
2012-10-12,66.75556182861328
2012-10-15,68.13233184814453
2012-10-16,69.12468719482422
2012-10-17,69.7236557006836
2012-10-18,70.18855285644531
2012-10-19,69.58061981201172
2012-10-22,70.59980773925781
2012-10-23,69.44652557373047
2012-10-24,69.16938018798828
2012-10-25,70.13489532470703
2012-10-26,69.16044616699219
2012-10-31,69.2587890625
2012-11-01,69.77731323242188
2012-11-02,69.5538101196289
2012-11-05,72.7275390625
2012-11-06,72.62919616699219
2012-11-07,71.23453521728516
2012-11-08,70.0455093383789
2012-11-09,70.31370544433594
2012-11-12,69.46440887451172
2012-11-13,69.61639404296875
2012-11-14,68.3111343383789
2012-11-15,71.75306701660156
2012-11-16,73.38909912109375
2012-11-19,74.47978973388672
2012-11-20,74.08643341064453
2012-11-21,75.48106384277344
2012-11-23,76.5360107421875
2012-11-26,77.53730010986328
2012-11-27,76.20523071289062
2012-11-28,76.08900451660156
2012-11-29,77.34062194824219
2012-11-30,76.95618438720703
2012-12-03,76.58071899414062
2012-12-04,76.45555114746094
2012-12-05,76.23204803466797
2012-12-06,76.58071899414062
2012-12-07,76.97407531738281
2012-12-10,76.81314086914062
2012-12-11,76.92935943603516
2012-12-12,77.58198547363281
2012-12-13,76.77738189697266
2012-12-14,76.81314086914062
2012-12-17,77.4121322631836
2012-12-18,79.79019927978516
2012-12-19,81.13121032714844
2012-12-20,82.81193542480469
2012-12-21,81.14909362792969
2012-12-24,81.51563262939453
2012-12-26,80.78254699707031
2012-12-27,82.73148345947266
2012-12-28,82.3113021850586
2012-12-31,83.36622619628906
2013-01-02,85.8157958984375
2013-01-03,85.26152038574219
2013-01-04,87.02272033691406
2013-01-07,85.40455627441406
2013-01-08,83.9741439819336
2013-01-09,85.52079010009766
2013-01-10,86.59358978271484
2013-01-11,85.92308807373047
2013-01-14,86.53995513916016
2013-01-15,86.20917510986328
2013-01-16,84.60890197753906
2013-01-17,86.52206420898438
2013-01-18,85.72640228271484
2013-01-22,84.77876281738281
2013-01-23,84.43903350830078
2013-01-24,85.5923080444336
2013-01-25,85.91413879394531
2013-01-28,84.73405456542969
2013-01-29,85.46715545654297
2013-01-30,85.46715545654297
2013-01-31,85.26152038574219
2013-02-01,87.72897338867188
2013-02-04,87.46078491210938
2013-02-05,88.3816146850586
2013-02-06,91.90399932861328
2013-02-07,91.90399932861328
2013-02-08,93.37910461425781
2013-02-11,94.70223999023438
2013-02-12,93.71882629394531
2013-02-13,93.16454315185547
2013-02-14,91.7609634399414
2013-02-15,91.7251968383789
2013-02-19,91.65367126464844
2013-02-20,91.71625518798828
2013-02-21,90.38418579101562
2013-02-22,91.49275207519531
2013-02-25,88.88224792480469
2013-02-26,91.60002899169922
2013-02-27,90.84012603759766
2013-02-28,91.7251968383789
2013-03-01,91.80565643310547
2013-03-04,91.58216094970703
2013-03-05,92.35101318359375
2013-03-06,93.37910461425781
2013-03-07,92.31523895263672
2013-03-08,92.69967651367188
2013-03-11,93.14667510986328
2013-03-12,91.86824035644531
2013-03-13,92.03810119628906
2013-03-14,92.56556701660156
2013-03-15,92.91423034667969
2013-03-18,91.96658325195312
2013-03-19,92.2168960571289
2013-03-20,93.22712707519531
2013-03-21,92.55662536621094
2013-03-22,92.96786499023438
2013-03-25,92.35994720458984
2013-03-26,93.76551818847656
2013-03-27,93.31298065185547
2013-03-28,92.89665222167969
2013-04-01,91.6114501953125
2013-04-02,90.46199798583984
2013-04-03,91.30371856689453
2013-04-04,95.60281372070312
2013-04-05,96.3902359008789
2013-04-08,98.39043426513672
2013-04-09,97.31340026855469
2013-04-10,98.45379638671875
2013-04-11,102.52661895751953
2013-04-12,102.36370849609375
2013-04-15,100.54450988769531
2013-04-16,101.82971954345703
2013-04-17,101.0604019165039
2013-04-18,100.05577087402344
2013-04-19,101.60346221923828
2013-04-22,101.57628631591797
2013-04-23,102.21890258789062
2013-04-24,102.897705078125
2013-04-25,104.8436050415039
2013-04-26,104.51779174804688
2013-04-29,105.47716522216797
2013-04-30,105.25994110107422
2013-05-01,102.92485809326172
2013-05-02,103.52220153808594
2013-05-03,104.01094818115234
2013-05-06,104.1104965209961
2013-05-07,105.06082916259766
2013-05-08,108.33718872070312
2013-05-09,106.9252700805664
2013-05-10,109.76720428466797
2013-05-13,112.9802017211914
2013-05-14,112.3647689819336
2013-05-15,114.58218383789062
2013-05-16,113.24267578125
2013-05-17,115.23384094238281
2013-05-20,116.43759155273438
2013-05-21,117.40601348876953
2013-05-22,115.7044677734375
2013-05-23,112.82636260986328
2013-05-24,109.0884017944336
2013-05-28,111.48683166503906
2013-05-29,108.21953582763672
2013-05-30,109.02503967285156
2013-05-31,106.39128875732422
2013-06-03,105.1784896850586
2013-06-04,107.03388214111328
2013-06-05,103.9656982421875
2013-06-06,103.61270904541016
2013-06-07,105.94779205322266
2013-06-10,109.64954376220703
2013-06-11,108.53630065917969
2013-06-12,107.82129669189453
2013-06-13,109.7853012084961
2013-06-14,106.23741912841797
2013-06-17,108.95262908935547
2013-06-18,110.68132781982422
2013-06-19,109.31465911865234
2013-06-20,105.94779205322266
2013-06-21,108.20143127441406
2013-06-24,105.4681167602539
2013-06-25,106.15596771240234
2013-06-26,106.85285949707031
2013-06-27,110.18353271484375
2013-06-28,109.20606231689453
2013-07-01,111.34203338623047
2013-07-02,112.65438079833984
2013-07-03,112.69963073730469
2013-07-05,113.37843322753906
2013-07-08,113.04356384277344
2013-07-09,114.22016143798828
2013-07-10,114.73603820800781
2013-07-11,117.01683044433594
2013-07-12,117.37886810302734
2013-07-15,117.3335952758789
2013-07-16,116.67291259765625
2013-07-17,118.41969299316406
2013-07-18,118.38349151611328
2013-07-19,117.98526000976562
2013-07-22,117.93095397949219
2013-07-23,117.18879699707031
2013-07-24,116.23846435546875
2013-07-25,115.4420166015625
2013-07-26,112.6724853515625
2013-07-29,108.8349838256836
2013-07-30,110.95284271240234
2013-07-31,110.3283462524414
2013-08-01,114.25636291503906
2013-08-02,121.57840728759766
2013-08-05,117.2159423828125
2013-08-06,117.3879165649414
2013-08-07,115.45105743408203
2013-08-08,115.8764419555664
2013-08-09,115.4601058959961
2013-08-12,116.13892364501953
2013-08-13,117.8404541015625
2013-08-14,116.99873352050781
2013-08-15,115.35150146484375
2013-08-16,116.64575958251953
2013-08-19,116.0302963256836
2013-08-20,114.73603820800781
2013-08-21,111.19721984863281
2013-08-22,112.92591094970703
2013-08-23,114.9532699584961
2013-08-26,113.3060302734375
2013-08-27,112.26520538330078
2013-08-28,112.14754486083984
2013-08-29,112.12944030761719
2013-08-30,109.32372283935547
2013-09-03,112.50052642822266
2013-09-04,113.89433288574219
2013-09-05,113.71332550048828
2013-09-06,113.63186645507812
2013-09-09,114.7632064819336
2013-09-10,115.28813934326172
2013-09-11,115.45105743408203
2013-09-12,113.95769500732422
2013-09-13,114.7632064819336
2013-09-16,115.6230239868164
2013-09-17,114.7450942993164
2013-09-18,118.50115203857422
2013-09-19,117.8404541015625
2013-09-20,117.1616439819336
2013-09-23,117.46031951904297
2013-09-24,118.1662826538086
2013-09-25,118.59371185302734
2013-09-26,120.53905487060547
2013-09-27,118.9681625366211
2013-09-30,116.93148040771484
2013-10-01,116.28302764892578
2013-10-02,116.59355926513672
2013-10-03,116.6757583618164
2013-10-04,116.91320037841797
2013-10-07,114.47466278076172
2013-10-08,112.95857238769531
2013-10-09,116.98627471923828
2013-10-10,119.6440200805664
2013-10-11,120.2376708984375
2013-10-14,119.41567993164062
2013-10-15,118.37451171875
2013-10-16,118.94989776611328
2013-10-17,118.82202911376953
2013-10-18,118.29232025146484
2013-10-21,118.1644515991211
2013-10-22,119.37916564941406
2013-10-23,118.04571533203125
2013-10-24,118.5663070678711
2013-10-25,117.53426361083984
2013-10-28,117.24198913574219
2013-10-29,117.77172088623047
2013-10-30,118.91336822509766
2013-10-31,118.20097351074219
2013-11-01,118.51150512695312
2013-11-04,118.39278411865234
2013-11-05,117.44291687011719
2013-11-06,118.00004577636719
2013-11-07,115.00437927246094
2013-11-08,116.32868957519531
2013-11-11,115.68936920166016
2013-11-12,116.2647705078125
2013-11-13,116.59355926513672
2013-11-14,116.42915344238281
2013-11-15,116.88581085205078
2013-11-18,116.58441925048828
2013-11-19,115.29664611816406
2013-11-20,115.12312316894531
2013-11-21,114.72125244140625
2013-11-22,115.36058044433594
2013-11-25,114.71212768554688
2013-11-26,114.10021209716797
2013-11-27,114.3559341430664
2013-11-29,114.20980072021484
2013-12-02,113.34215545654297
2013-12-03,112.8946304321289
2013-12-04,112.43798065185547
2013-12-05,111.0588607788086
2013-12-06,112.10004425048828
2013-12-09,111.8169174194336
2013-12-10,111.15019989013672
2013-12-11,109.90809631347656
2013-12-12,109.90809631347656
2013-12-13,108.88518524169922
2013-12-16,108.3646011352539
2013-12-17,108.34632873535156
2013-12-18,110.54741668701172
2013-12-19,108.41939544677734
2013-12-20,108.45592498779297
2013-12-23,108.93084716796875
2013-12-24,108.32806396484375
2013-12-26,111.14107513427734
2013-12-27,111.3145980834961
2013-12-30,110.83968353271484
2013-12-31,111.35113525390625
2014-01-02,110.17295837402344
2014-01-03,110.06336975097656
2014-01-06,109.7528305053711
2014-01-07,110.0177001953125
2014-01-08,109.4605712890625
2014-01-09,109.89896392822266
2014-01-10,110.33735656738281
2014-01-13,109.04959869384766
2014-01-14,109.10437774658203
2014-01-15,109.11351776123047
2014-01-16,109.44231414794922
2014-01-17,108.85779571533203
2014-01-21,110.0177001953125
2014-01-22,111.14107513427734
2014-01-23,109.01304626464844
2014-01-24,107.66134643554688
2014-01-27,106.8850326538086
2014-01-28,107.61568450927734
2014-01-29,107.04029083251953
2014-01-30,107.0037612915039
2014-01-31,104.81181335449219
2014-02-03,102.9760513305664
2014-02-04,102.73858642578125
2014-02-05,105.63379669189453
2014-02-06,105.90778350830078
2014-02-07,107.2046890258789
2014-02-10,106.8941650390625
2014-02-11,107.68875885009766
2014-02-12,107.36908721923828
2014-02-13,106.0813217163086
2014-02-14,105.1862564086914
2014-02-18,106.2000503540039
2014-02-19,105.23194122314453
2014-02-20,105.3323974609375
2014-02-21,106.25483703613281
2014-02-24,106.09957885742188
2014-02-25,106.37357330322266
2014-02-26,105.56072998046875
2014-02-27,105.96257781982422
2014-02-28,105.30500793457031
2014-03-03,103.75237274169922
2014-03-04,105.2228012084961
2014-03-05,103.44184875488281
2014-03-06,104.71134948730469
2014-03-07,104.08116149902344
2014-03-10,103.51490020751953
2014-03-11,102.711181640625
2014-03-12,101.65174102783203
2014-03-13,100.65623474121094
2014-03-14,99.3319320678711
2014-03-17,101.07636260986328
2014-03-18,100.3091812133789
2014-03-19,99.25886535644531
2014-03-20,98.28162384033203
2014-03-21,98.06243133544922
2014-03-24,98.5830307006836
2014-03-25,99.05792999267578
2014-03-26,102.80245971679688
2014-03-27,103.779052734375
2014-03-28,104.94165802001953
2014-03-31,105.00677490234375
2014-04-01,105.30438995361328
2014-04-02,105.50902557373047
2014-04-03,104.96956634521484
2014-04-04,103.48143005371094
2014-04-07,103.60233306884766
2014-04-08,101.4724349975586
2014-04-09,100.19823455810547
2014-04-10,96.16165161132812
2014-04-11,97.55677795410156
2014-04-14,99.81688690185547
2014-04-15,99.38904571533203
2014-04-16,100.88648986816406
2014-04-17,100.46794128417969
2014-04-21,101.04460144042969
2014-04-22,100.83997344970703
2014-04-23,100.58885192871094
2014-04-24,99.55646514892578
2014-04-25,99.04491424560547
2014-04-28,99.58436584472656
2014-04-29,99.98430633544922
2014-04-30,100.83997344970703
2014-05-01,102.05838775634766
2014-05-02,102.24441528320312
2014-05-05,101.7886734008789
2014-05-06,101.37942504882812
2014-05-07,101.40733337402344
2014-05-08,100.58885192871094
2014-05-09,101.2585220336914
2014-05-12,101.57475280761719
2014-05-13,103.5930404663086
2014-05-14,102.70945739746094
2014-05-15,101.84447479248047
2014-05-16,101.94679260253906
2014-05-19,101.01669311523438
2014-05-20,100.14241790771484
2014-05-21,100.50514221191406
2014-05-22,101.8351821899414
2014-05-23,101.97469329833984
2014-05-27,102.41183471679688
2014-05-28,102.2258071899414
2014-05-29,103.69534301757812
2014-05-30,105.20209503173828
2014-06-02,105.98335266113281
2014-06-03,106.88554382324219
2014-06-04,106.47631072998047
2014-06-05,106.57861328125
2014-06-06,107.0994644165039
2014-06-09,107.02505493164062
2014-06-10,105.90895080566406
2014-06-11,106.08566284179688
2014-06-12,106.27169799804688
2014-06-13,106.25308227539062
2014-06-16,106.47631072998047
2014-06-17,106.69023132324219
2014-06-18,107.93655395507812
2014-06-19,109.51769256591797
2014-06-20,109.954833984375
2014-06-23,109.02474975585938
2014-06-24,108.40159606933594
2014-06-25,109.25725555419922
2014-06-26,109.42467498779297
2014-06-27,110.53148651123047
2014-06-30,111.2941665649414
2014-07-01,113.71238708496094
2014-07-02,113.35894012451172
2014-07-03,113.21944427490234
2014-07-07,112.68929290771484
2014-07-08,111.88941955566406
2014-07-09,111.6475830078125
2014-07-10,109.79672241210938
2014-07-11,110.23385620117188
2014-07-14,110.6802978515625
2014-07-15,110.41057586669922
2014-07-16,110.81981658935547
2014-07-17,110.1036376953125
2014-07-18,110.58728790283203
2014-07-21,110.36408233642578
2014-07-22,110.84771728515625
2014-07-23,111.08023834228516
2014-07-24,111.03372192382812
2014-07-25,111.26625061035156
2014-07-28,112.14983367919922
2014-07-29,112.14983367919922
2014-07-30,111.6475830078125
2014-07-31,109.74091339111328
2014-08-01,109.3688735961914
2014-08-04,109.86182403564453
2014-08-05,110.70821380615234
2014-08-06,108.45738220214844
2014-08-07,108.52249908447266
2014-08-08,109.40607452392578
2014-08-11,108.5969009399414
2014-08-12,109.0433349609375
2014-08-13,109.68510437011719
2014-08-14,109.50837707519531
2014-08-15,108.71781921386719
2014-08-18,109.01544189453125
2014-08-19,108.77361297607422
2014-08-20,107.61100769042969
2014-08-21,107.68541717529297
2014-08-22,106.11356353759766
2014-08-25,106.83904266357422
2014-08-26,107.03436279296875
2014-08-27,106.87625122070312
2014-08-28,106.42980194091797
2014-08-29,106.3274917602539
2014-09-02,108.0760498046875
2014-09-03,107.85282897949219
2014-09-04,107.93655395507812
2014-09-05,108.25277709960938
2014-09-08,107.92723846435547
2014-09-09,106.97855377197266
2014-09-10,108.34577941894531
2014-09-11,108.23417663574219
2014-09-12,108.92243194580078
2014-09-15,108.96894073486328
2014-09-16,109.3688735961914
2014-09-17,109.1456527709961
2014-09-18,111.08023834228516
2014-09-19,110.45708465576172
2014-09-22,110.6895980834961
2014-09-23,109.98272705078125
2014-09-24,110.54078674316406
2014-09-25,110.80682373046875
2014-09-26,111.54009246826172
2014-09-29,110.47779846191406
2014-09-30,110.48719787597656
2014-10-01,109.65994262695312
2014-10-02,107.61997985839844
2014-10-03,109.19930267333984
2014-10-06,109.70693969726562
2014-10-07,108.87966918945312
2014-10-08,109.29329681396484
2014-10-09,107.65756225585938
2014-10-10,107.14053344726562
2014-10-13,105.9184341430664
2014-10-14,104.93135070800781
2014-10-15,103.46482849121094
2014-10-16,103.57763671875
2014-10-17,103.21100616455078
2014-10-20,106.52008056640625
2014-10-21,106.55768585205078
2014-10-22,105.54239654541016
2014-10-23,106.61409759521484
2014-10-24,107.64817810058594
2014-10-27,107.48835754394531
2014-10-28,108.20281219482422
2014-10-29,108.87026977539062
2014-10-30,108.91727447509766
2014-10-31,114.07829284667969
2014-11-03,114.6893539428711
2014-11-04,112.24514770507812
2014-11-05,114.09709167480469
2014-11-06,112.64937591552734
2014-11-07,111.55888366699219
2014-11-10,110.90083312988281
2014-11-11,112.00072479248047
2014-11-12,111.67169952392578
2014-11-13,112.63997650146484
2014-11-14,112.63997650146484
2014-11-17,111.48368072509766
2014-11-18,112.87499237060547
2014-11-19,113.13821411132812
2014-11-20,112.54597473144531
2014-11-21,114.02188873291016
2014-11-24,114.18170166015625
2014-11-25,114.5107192993164
2014-11-26,114.4073257446289
2014-11-28,115.75163269042969
2014-12-01,117.45317077636719
2014-12-02,118.9854965209961
2014-12-03,120.05718231201172
2014-12-04,120.89385223388672
2014-12-05,121.29808044433594
2014-12-08,120.72462463378906
2014-12-09,120.6682357788086
2014-12-10,117.97021484375
2014-12-11,118.53424835205078
2014-12-12,117.07714080810547
2014-12-15,114.26631164550781
2014-12-16,114.6329345703125
2014-12-17,115.83623504638672
2014-12-18,117.26515197753906
2014-12-19,119.39913177490234
2014-12-22,119.05130004882812
2014-12-23,119.16410827636719
2014-12-24,119.16410827636719
2014-12-26,120.42381286621094
2014-12-29,119.73755645751953
2014-12-30,118.36505126953125
2014-12-31,117.96080780029297
2015-01-02,118.13941955566406
2015-01-05,115.97724914550781
2015-01-06,114.78335571289062
2015-01-07,117.66938781738281
2015-01-08,119.93496704101562
2015-01-09,118.52485656738281
2015-01-12,118.48725128173828
2015-01-13,118.8350830078125
2015-01-14,118.28043365478516
2015-01-15,119.18291473388672
2015-01-16,121.1570816040039
2015-01-20,121.4202880859375
2015-01-21,120.95025634765625
2015-01-22,122.0783462524414
2015-01-23,121.89033508300781
2015-01-26,123.95849609375
2015-01-27,123.24405670166016
2015-01-28,123.10302734375
2015-01-29,124.23111724853516
2015-01-30,121.12887573242188
2015-02-02,123.2346420288086
2015-02-03,123.24405670166016
2015-02-04,124.72935485839844
2015-02-05,123.84569549560547
2015-02-06,121.80572509765625
2015-02-09,121.4202880859375
2015-02-10,123.00901794433594
2015-02-11,123.16883850097656
2015-02-12,123.92091369628906
2015-02-13,124.55075073242188
2015-02-17,124.16532135009766
2015-02-18,126.12068176269531
2015-02-19,127.17355346679688
2015-02-20,128.69647216796875
2015-02-23,128.77169799804688
2015-02-24,130.05018615722656
2015-02-25,128.66827392578125
2015-02-26,128.60247802734375
2015-02-27,127.25816345214844
2015-03-02,127.72819519042969
2015-03-03,127.2863540649414
2015-03-04,127.39918518066406
2015-03-05,126.81632995605469
2015-03-06,126.80692291259766
2015-03-09,127.27696990966797
2015-03-10,125.67884063720703
2015-03-11,125.97026062011719
2015-03-12,129.28871154785156
2015-03-13,128.01022338867188
2015-03-16,129.27932739257812
2015-03-17,128.7528839111328
2015-03-18,131.68592834472656
2015-03-19,131.70474243164062
2015-03-20,134.5155487060547
2015-03-23,136.6119384765625
2015-03-24,135.85987854003906
2015-03-25,135.19239807128906
2015-03-26,134.53436279296875
2015-03-27,135.77577209472656
2015-03-30,135.9188232421875
2015-03-31,133.38255310058594
2015-04-01,132.0381317138672
2015-04-02,133.5065155029297
2015-04-06,134.09767150878906
2015-04-07,133.22047424316406
2015-04-08,133.43023681640625
2015-04-09,133.40164184570312
2015-04-10,133.15371704101562
2015-04-13,131.1609344482422
2015-04-14,132.20977783203125
2015-04-15,132.6102294921875
2015-04-16,132.514892578125
2015-04-17,131.99046325683594
2015-04-20,132.27650451660156
2015-04-21,134.7555694580078
2015-04-22,135.0702362060547
2015-04-23,134.4695281982422
2015-04-24,134.64114379882812
2015-04-27,134.11672973632812
2015-04-28,135.4516143798828
2015-04-29,134.24069213867188
2015-04-30,132.5530242919922
2015-05-01,133.44931030273438
2015-05-04,133.5446319580078
2015-05-05,131.1514129638672
2015-05-06,130.77955627441406
2015-05-07,131.50421142578125
2015-05-08,135.50881958007812
2015-05-11,131.05606079101562
2015-05-12,131.25628662109375
2015-05-13,130.26466369628906
2015-05-14,131.53280639648438
2015-05-15,132.88674926757812
2015-05-18,132.94393920898438
2015-05-19,133.03929138183594
2015-05-20,132.54348754882812
2015-05-21,132.9534912109375
2015-05-22,131.79025268554688
2015-05-26,131.29443359375
2015-05-27,132.31466674804688
2015-05-28,133.2395477294922
2015-05-29,131.47560119628906
2015-06-01,130.85585021972656
2015-06-02,130.21701049804688
2015-06-03,131.04652404785156
2015-06-04,130.48397827148438
2015-06-05,129.206298828125
2015-06-08,126.95609283447266
2015-06-09,126.14563751220703
2015-06-10,127.99539947509766
2015-06-11,128.8916473388672
2015-06-12,129.18724060058594
2015-06-15,129.206298828125
2015-06-16,129.730712890625
2015-06-17,128.5960693359375
2015-06-18,128.22421264648438
2015-06-19,127.78562927246094
2015-06-22,129.1776885986328
2015-06-23,130.72235107421875
2015-06-24,129.10140991210938
2015-06-25,128.5960693359375
2015-06-26,129.15863037109375
2015-06-29,126.28864288330078
2015-06-30,127.52818298339844
2015-07-01,127.3851547241211
2015-07-02,126.57469940185547
2015-07-06,126.55561828613281
2015-07-07,126.22190856933594
2015-07-08,122.15054321289062
2015-07-09,123.02774047851562
2015-07-10,125.40191650390625
2015-07-13,127.23260498046875
2015-07-14,127.24212646484375
2015-07-15,127.75700378417969
2015-07-16,129.4542236328125
2015-07-17,129.06329345703125
2015-07-20,129.23489379882812
2015-07-21,128.3004913330078
2015-07-22,127.75700378417969
2015-07-23,127.05142974853516
2015-07-24,126.3840103149414
2015-07-27,125.65933990478516
2015-07-28,125.70703125
2015-07-29,126.403076171875
2015-07-30,126.11702728271484
2015-07-31,127.25167083740234
2015-08-03,126.98468017578125
2015-08-04,123.80960845947266
2015-08-05,122.34123992919922
2015-08-06,122.81797790527344
2015-08-07,123.90494537353516
2015-08-10,124.9919204711914
2015-08-11,123.0086669921875
2015-08-12,121.49263763427734
2015-08-13,121.84542846679688
2015-08-14,122.22682189941406
2015-08-17,121.92171478271484
2015-08-18,121.92171478271484
2015-08-19,120.17683410644531
2015-08-20,116.80150604248047
2015-08-21,113.51200103759766
2015-08-24,108.23924255371094
2015-08-25,108.09622192382812
2015-08-26,112.3582763671875
2015-08-27,114.00780487060547
2015-08-28,115.1519775390625
2015-08-31,112.87316131591797
2015-09-01,109.0210952758789
2015-09-02,112.14852142333984
2015-09-03,114.04594421386719
2015-09-04,111.08061981201172
2015-09-08,115.6001205444336
2015-09-09,115.00896453857422
2015-09-10,112.4536361694336
2015-09-11,111.65270233154297
2015-09-14,110.9375991821289
2015-09-15,114.37966918945312
2015-09-16,116.32477569580078
2015-09-17,115.6001205444336
2015-09-18,113.29269409179688
2015-09-21,113.87432098388672
2015-09-22,112.11038208007812
2015-09-23,112.04364013671875
2015-09-24,112.08177947998047
2015-09-25,112.99711608886719
2015-09-28,111.39036560058594
2015-09-29,110.45260620117188
2015-09-30,113.38188934326172
2015-10-01,114.40665435791016
2015-10-02,116.71722412109375
2015-10-05,118.2543716430664
2015-10-06,116.9009017944336
2015-10-07,118.63140869140625
2015-10-08,119.37581634521484
2015-10-09,118.52507019042969
2015-10-12,119.01811218261719
2015-10-13,117.04591369628906
2015-10-14,116.05982208251953
2015-10-15,118.3703842163086
2015-10-16,119.8398666381836
2015-10-19,119.44348907470703
2015-10-20,118.14802551269531
2015-10-21,119.5885009765625
2015-10-22,121.06765747070312
2015-10-23,121.56069946289062
2015-10-26,121.1643295288086
2015-10-27,120.68094635009766
2015-10-28,122.16009521484375
2015-10-29,119.143798828125
2015-10-30,118.54440307617188
2015-11-02,119.2018051147461
2015-11-03,119.28881072998047
2015-11-04,119.45315551757812
2015-11-05,120.70995330810547
2015-11-06,118.83442687988281
2015-11-09,118.15769958496094
2015-11-10,119.4821548461914
2015-11-11,119.1341323852539
2015-11-12,117.68399047851562
2015-11-13,117.23926544189453
2015-11-16,117.98368072509766
2015-11-17,119.0567855834961
2015-11-18,120.75828552246094
2015-11-19,119.77218627929688
2015-11-20,119.55950164794922
2015-11-23,119.02778625488281
2015-11-24,119.89786529541016
2015-11-25,119.7431869506836
2015-11-27,120.23624420166016
2015-11-30,120.2845687866211
2015-12-01,121.73471069335938
2015-12-02,121.56069946289062
2015-12-03,120.57460021972656
2015-12-04,121.71538543701172
2015-12-07,120.99031066894531
2015-12-08,118.44772338867188
2015-12-09,119.7818603515625
2015-12-10,120.73895263671875
2015-12-11,119.55950164794922
2015-12-14,118.42839050292969
2015-12-15,118.10935974121094
2015-12-16,122.45012664794922
2015-12-17,120.65194702148438
2015-12-18,120.25556945800781
2015-12-21,120.50692749023438
2015-12-22,121.40601348876953
2015-12-23,122.92383575439453
2015-12-24,121.5896987915039
2015-12-28,120.33291625976562
2015-12-29,120.61327362060547
2015-12-30,119.12445831298828
2015-12-31,118.950439453125
2016-01-04,117.42295837402344
2016-01-05,117.11358642578125
2016-01-06,114.44532775878906
2016-01-07,111.72872924804688
2016-01-08,109.3021469116211
2016-01-11,110.99398803710938
2016-01-12,111.98008728027344
2016-01-13,111.16799926757812
2016-01-14,112.42479705810547
2016-01-15,108.8574447631836
2016-01-19,111.19700622558594
2016-01-20,107.80367279052734
2016-01-21,107.40729522705078
2016-01-22,112.0960922241211
2016-01-25,109.6405258178711
2016-01-26,110.54927825927734
2016-01-27,111.4870376586914
2016-01-28,112.26045227050781
2016-01-29,116.04048919677734
2016-02-01,116.398193359375
2016-02-02,115.04471588134766
2016-02-03,111.16799926757812
2016-02-04,110.49127197265625
2016-02-05,106.72089385986328
2016-02-08,105.50277709960938
2016-02-09,103.28888702392578
2016-02-10,103.22122192382812
2016-02-11,101.58738708496094
2016-02-12,101.76141357421875
2016-02-16,104.61334991455078
2016-02-17,104.5360107421875
2016-02-18,103.87860870361328
2016-02-19,101.80973815917969
2016-02-22,103.14388275146484
2016-02-23,102.10944366455078
2016-02-24,101.1136703491211
2016-02-25,102.06109619140625
2016-02-26,101.64539337158203
2016-02-29,100.63996124267578
2016-03-01,102.87318420410156
2016-03-02,103.43390655517578
2016-03-03,104.96139526367188
2016-03-04,105.90882110595703
2016-03-07,104.32332611083984
2016-03-08,102.30279541015625
2016-03-09,102.71849822998047
2016-03-10,103.52091217041016
2016-03-11,105.62845611572266
2016-03-14,105.3287582397461
2016-03-15,103.65626525878906
2016-03-16,103.96562957763672
2016-03-17,104.34266662597656
2016-03-18,103.05686950683594
2016-03-21,103.57891845703125
2016-03-22,104.99039459228516
2016-03-23,104.50701141357422
2016-03-24,102.78617095947266
2016-03-28,105.07740020751953
2016-03-29,106.72731018066406
2016-03-30,105.9885482788086
2016-03-31,104.72771453857422
2016-04-01,101.98934936523438
2016-04-04,99.8616943359375
2016-04-05,97.26123809814453
2016-04-06,98.01970672607422
2016-04-07,96.79827117919922
2016-04-08,99.1524887084961
2016-04-11,96.95587921142578
2016-04-12,100.05870819091797
2016-04-13,102.69857025146484
2016-04-14,103.3880844116211
2016-04-15,102.12725830078125
2016-04-18,101.81204986572266
2016-04-19,103.13197326660156
2016-04-20,103.27973175048828
2016-04-21,103.86090087890625
2016-04-22,105.84078979492188
2016-04-25,105.73243713378906
2016-04-26,105.71273803710938
2016-04-27,104.77696990966797
2016-04-28,101.41803741455078
2016-04-29,100.1769027709961
2016-05-02,100.93537902832031
2016-05-03,99.93064880371094
2016-05-04,99.11308288574219
2016-05-05,99.75334167480469
2016-05-06,100.43301391601562
2016-05-09,101.07328033447266
2016-05-10,103.25018310546875
2016-05-11,96.96573638916016
2016-05-12,99.8616943359375
2016-05-13,98.29551696777344
2016-05-16,99.31008911132812
2016-05-17,99.10323333740234
2016-05-18,100.00945281982422
2016-05-19,98.11820983886719
2016-05-20,99.10323333740234
2016-05-23,98.05911254882812
2016-05-24,99.13278198242188
2016-05-25,101.0831298828125
2016-05-26,100.73836517333984
2016-05-27,99.08352661132812
2016-05-31,101.8613052368164
2016-06-01,101.78250122070312
2016-06-02,102.2651596069336
2016-06-03,101.949951171875
2016-06-06,103.95939636230469
2016-06-07,103.91014862060547
2016-06-08,104.06775665283203
2016-06-09,102.93497467041016
2016-06-10,101.6544418334961
2016-06-13,100.16706085205078
2016-06-14,99.56619262695312
2016-06-15,100.94522857666016
2016-06-16,100.46256256103516
2016-06-17,101.69384002685547
2016-06-20,104.21550750732422
2016-06-21,105.51573944091797
2016-06-22,104.90502166748047
2016-06-23,108.30335235595703
2016-06-24,102.40306091308594
2016-06-27,98.75847625732422
2016-06-28,98.3546142578125
2016-06-29,99.99960327148438
2016-06-30,98.49251556396484
2016-07-01,98.14775848388672
2016-07-05,97.69464874267578
2016-07-06,98.28565979003906
2016-07-07,99.08352661132812
2016-07-08,100.54136657714844
2016-07-11,104.07760620117188
2016-07-12,104.94441986083984
2016-07-13,106.2446517944336
2016-07-14,106.36286163330078
2016-07-15,107.19027709960938
2016-07-18,107.37743377685547
2016-07-19,106.93416595458984
2016-07-20,107.66309356689453
2016-07-21,107.22967529296875
2016-07-22,108.03739929199219
2016-07-25,108.03739929199219
2016-07-26,107.9585952758789
2016-07-27,108.91407012939453
2016-07-28,109.10122680664062
2016-07-29,109.92864227294922
2016-08-01,109.5641860961914
2016-08-02,108.32305145263672
2016-08-03,108.42155456542969
2016-08-04,110.62800598144531
2016-08-05,114.22334289550781
2016-08-08,115.6516342163086
2016-08-09,115.6614761352539
2016-08-10,115.19851684570312
2016-08-11,116.00623321533203
2016-08-12,116.02593994140625
2016-08-15,115.81908416748047
2016-08-16,115.52357482910156
2016-08-17,117.4148178100586
2016-08-18,117.15872192382812
2016-08-19,117.82853698730469
2016-08-22,118.77415466308594
2016-08-23,118.0058364868164
2016-08-24,119.08936309814453
2016-08-25,118.4885025024414
2016-08-26,116.84351348876953
2016-08-29,118.5377426147461
2016-08-30,119.42427062988281
2016-08-31,118.82340240478516
2016-09-01,119.20756530761719
2016-09-02,120.25169372558594
2016-09-06,118.86280822753906
2016-09-07,118.93175506591797
2016-09-08,119.19771575927734
2016-09-09,116.8829116821289
2016-09-12,118.54759979248047
2016-09-13,117.0306625366211
2016-09-14,115.69102478027344
2016-09-15,116.4002456665039
2016-09-16,112.91326141357422
2016-09-19,113.34667205810547
2016-09-20,114.71585845947266
2016-09-21,117.66107177734375
2016-09-22,118.99085998535156
2016-09-23,115.89788818359375
2016-09-26,115.34626770019531
2016-09-27,116.54800415039062
2016-09-28,117.62999725341797
2016-09-29,115.98999786376953
2016-09-30,116.05999755859375
2016-10-03,115.26000213623047
2016-10-04,115.33000183105469
2016-10-05,117.06999969482422
2016-10-06,116.44000244140625
2016-10-07,115.88999938964844
2016-10-10,116.41999816894531
2016-10-11,115.31999969482422
2016-10-12,115.1500015258789
2016-10-13,114.69000244140625
2016-10-14,115.08999633789062
2016-10-17,115.43000030517578
2016-10-18,115.05000305175781
2016-10-19,114.88999938964844
2016-10-20,116.13999938964844
2016-10-21,115.2699966430664
2016-10-24,115.44999694824219
2016-10-25,115.25
2016-10-26,115.5
2016-10-27,114.8499984741211
2016-10-28,114.80999755859375
2016-10-31,115.66000366210938
2016-11-01,114.7300033569336
2016-11-02,113.37999725341797
2016-11-03,113.16999816894531
2016-11-04,110.55999755859375
2016-11-07,112.4800033569336
2016-11-08,113.80999755859375
2016-11-09,111.80999755859375
2016-11-10,110.86000061035156
2016-11-11,111.94999694824219
2016-11-14,111.77999877929688
2016-11-15,112.48999786376953
2016-11-16,112.56999969482422
2016-11-17,113.23999786376953
2016-11-18,114.04000091552734
2016-11-21,114.51000213623047
2016-11-22,113.77999877929688
2016-11-23,114.51000213623047
2016-11-25,117.80000305175781
2016-11-28,117.6500015258789
2016-11-29,118.30000305175781
2016-11-30,118.52999877929688
2016-12-01,117.7699966430664
2016-12-02,116.83000183105469
2016-12-05,117.55999755859375
2016-12-06,117.87999725341797
2016-12-07,121.45999908447266
2016-12-08,122.80999755859375
2016-12-09,122.9800033569336
2016-12-12,121.86000061035156
2016-12-13,123.06999969482422
2016-12-14,121.05999755859375
2016-12-15,121.9800033569336
2016-12-16,121.0
2016-12-19,121.83999633789062
2016-12-20,121.66999816894531
2016-12-21,121.11000061035156
2016-12-22,120.66000366210938
2016-12-23,120.9000015258789
2016-12-27,119.38999938964844
2016-12-28,118.41999816894531
2016-12-29,117.04000091552734
2016-12-30,117.19999694824219
2017-01-03,118.55000305175781
2017-01-04,121.19000244140625
2017-01-05,120.44000244140625
2017-01-06,120.12999725341797
2017-01-09,119.73999786376953
2017-01-10,119.76000213623047
2017-01-11,119.91000366210938
2017-01-12,119.63999938964844
2017-01-13,119.80999755859375
2017-01-17,118.41000366210938
2017-01-18,118.79000091552734
2017-01-19,119.30999755859375
2017-01-20,118.91999816894531
2017-01-23,118.29000091552734
2017-01-24,117.63999938964844
2017-01-25,119.05999755859375
2017-01-26,118.9800033569336
2017-01-27,116.69000244140625
2017-01-30,116.06999969482422
2017-01-31,115.75
2017-02-01,115.26000213623047
2017-02-02,114.52999877929688
2017-02-03,115.12000274658203
2017-02-06,113.30999755859375
2017-02-07,113.04000091552734
2017-02-08,113.2699966430664
2017-02-09,111.91999816894531
2017-02-10,112.88999938964844
2017-02-13,114.12999725341797
2017-02-14,114.47000122070312
2017-02-15,113.61000061035156
2017-02-16,113.3499984741211
2017-02-17,113.69999694824219
2017-02-21,114.30000305175781
2017-02-22,114.4000015258789
2017-02-23,114.58999633789062
2017-02-24,113.7699966430664
2017-02-27,114.23999786376953
2017-02-28,113.1500015258789
2017-03-01,114.73999786376953
2017-03-02,113.38999938964844
2017-03-03,113.33999633789062
2017-03-06,112.91000366210938
2017-03-07,112.6500015258789
2017-03-08,111.80000305175781
2017-03-09,112.19000244140625
2017-03-10,112.66000366210938
2017-03-13,113.4000015258789
2017-03-14,112.08999633789062
2017-03-15,113.23999786376953
2017-03-16,113.23999786376953
2017-03-17,112.20999908447266
2017-03-20,112.0
2017-03-21,111.38999938964844
2017-03-22,110.83000183105469
2017-03-23,110.51000213623047
2017-03-24,111.36000061035156
2017-03-27,111.7300033569336
2017-03-28,112.41000366210938
2017-03-29,110.25
2017-03-30,110.05999755859375
2017-03-31,108.62000274658203
2017-04-03,108.5199966430664
2017-04-04,108.01000213623047
2017-04-05,106.13999938964844
2017-04-06,105.5
2017-04-07,105.91000366210938
2017-04-10,105.9800033569336
2017-04-11,106.4000015258789
2017-04-12,105.44000244140625
2017-04-13,104.18000030517578
2017-04-17,106.12000274658203
2017-04-18,105.31999969482422
2017-04-19,104.62000274658203
2017-04-20,106.0
2017-04-21,106.58000183105469
2017-04-24,106.98999786376953
2017-04-25,108.72000122070312
2017-04-26,109.91000366210938
2017-04-27,109.41000366210938
2017-04-28,108.13999938964844
2017-05-01,108.30000305175781
2017-05-02,109.23999786376953
2017-05-03,108.87000274658203
2017-05-04,109.16000366210938
2017-05-05,109.91000366210938
2017-05-08,110.19000244140625
2017-05-09,108.45999908447266
2017-05-10,105.80999755859375
2017-05-11,106.83999633789062
2017-05-12,106.45999908447266
2017-05-15,106.41000366210938
2017-05-16,106.91999816894531
2017-05-17,105.79000091552734
2017-05-18,106.7699966430664
2017-05-19,107.55999755859375
2017-05-22,107.5
2017-05-23,108.08000183105469
2017-05-24,107.31999969482422
2017-05-25,107.30000305175781
2017-05-26,107.0999984741211
2017-05-30,107.87999725341797
2017-05-31,107.54000091552734
2017-06-01,108.4000015258789
2017-06-02,109.37000274658203
2017-06-05,107.76000213623047
2017-06-06,107.80000305175781
2017-06-07,107.52999877929688
2017-06-08,105.77999877929688
2017-06-09,105.73999786376953
2017-06-12,106.44999694824219
2017-06-13,107.41000366210938
2017-06-14,106.69999694824219
2017-06-15,105.77999877929688
2017-06-16,104.9000015258789
2017-06-19,104.69999694824219
2017-06-20,103.81999969482422
2017-06-21,104.55999755859375
2017-06-22,105.48999786376953
2017-06-23,105.23999786376953
2017-06-26,104.9800033569336
2017-06-27,104.54000091552734
2017-06-28,105.30999755859375
2017-06-29,104.33999633789062
2017-06-30,105.0199966430664
2017-07-03,106.02999877929688
2017-07-05,108.52999877929688
2017-07-06,107.44999694824219
2017-07-07,108.47000122070312
2017-07-10,108.22000122070312
2017-07-11,108.20999908447266
2017-07-12,109.87000274658203
2017-07-13,109.83999633789062
2017-07-14,110.19999694824219
2017-07-17,110.33000183105469
2017-07-18,110.0
2017-07-19,109.69999694824219
2017-07-20,109.83999633789062
2017-07-21,109.30999755859375
2017-07-24,109.41000366210938
2017-07-25,110.12999725341797
2017-07-26,110.7699966430664
2017-07-27,111.66999816894531
2017-07-28,112.26000213623047
2017-07-31,112.83999633789062
2017-08-01,114.16999816894531
2017-08-02,114.19000244140625
2017-08-03,112.7300033569336
2017-08-04,113.63999938964844
2017-08-07,114.12999725341797
2017-08-08,114.22000122070312
2017-08-09,113.0999984741211
2017-08-10,112.37999725341797
2017-08-11,112.12000274658203
2017-08-14,113.02999877929688
2017-08-15,113.27999877929688
2017-08-16,112.38999938964844
2017-08-17,111.44999694824219
2017-08-18,111.7300033569336
2017-08-21,112.72000122070312
2017-08-22,112.87000274658203
2017-08-23,112.8499984741211
2017-08-24,112.22000122070312
2017-08-25,112.83999633789062
2017-08-28,112.2699966430664
2017-08-29,112.08000183105469
2017-08-30,112.29000091552734
2017-08-31,112.9800033569336
2017-09-01,113.02999877929688
2017-09-05,113.62000274658203
2017-09-06,113.7300033569336
2017-09-07,114.27999877929688
2017-09-08,114.97000122070312
2017-09-11,116.2300033569336
2017-09-12,116.54000091552734
2017-09-13,116.61000061035156
2017-09-14,117.0999984741211
2017-09-15,117.69000244140625
2017-09-18,117.58999633789062
2017-09-19,120.05999755859375
2017-09-20,120.37000274658203
2017-09-21,120.05000305175781
2017-09-22,120.62999725341797
2017-09-25,120.97000122070312
2017-09-26,121.33000183105469
2017-09-27,121.48999786376953
2017-09-28,119.5999984741211
2017-09-29,119.16999816894531
2017-10-02,119.30999755859375
2017-10-03,120.33999633789062
2017-10-04,120.97000122070312
2017-10-05,120.83999633789062
2017-10-06,121.87000274658203
2017-10-09,121.66999816894531
2017-10-10,124.08000183105469
2017-10-11,123.55999755859375
2017-10-12,123.19000244140625
2017-10-13,123.37999725341797
2017-10-16,123.41999816894531
2017-10-17,123.30999755859375
2017-10-18,124.26000213623047
2017-10-19,123.06999969482422
2017-10-20,123.70999908447266
2017-10-23,122.7699966430664
2017-10-24,123.87999725341797
2017-10-25,122.33999633789062
2017-10-26,123.8499984741211
2017-10-27,124.2300033569336
2017-10-30,124.38999938964844
2017-10-31,124.0
2017-11-01,124.43000030517578
2017-11-02,125.30999755859375
2017-11-03,125.62000274658203
2017-11-06,125.62999725341797
2017-11-07,127.45999908447266
2017-11-08,127.9800033569336
2017-11-09,125.45999908447266
2017-11-10,124.48999786376953
2017-11-13,125.66999816894531
2017-11-14,124.87000274658203
2017-11-15,123.66000366210938
2017-11-16,124.37000274658203
2017-11-17,123.29000091552734
2017-11-20,124.29000091552734
2017-11-21,125.77999877929688
2017-11-22,126.08000183105469
2017-11-24,126.05000305175781
2017-11-27,125.9800033569336
2017-11-28,126.95999908447266
2017-11-29,126.55000305175781
2017-11-30,126.33999633789062
2017-12-01,124.36000061035156
2017-12-04,123.91999816894531
2017-12-05,123.68000030517578
2017-12-06,122.97000122070312
2017-12-07,123.38999938964844
2017-12-08,124.44999694824219
2017-12-11,123.93000030517578
2017-12-12,124.25
2017-12-13,124.91999816894531
2017-12-14,125.0
2017-12-15,124.33999633789062
2017-12-18,127.31999969482422
2017-12-19,127.01000213623047
2017-12-20,127.62999725341797
2017-12-21,128.27999877929688
2017-12-22,128.32000732421875
2017-12-26,127.9800033569336
2017-12-27,128.22999572753906
2017-12-28,128.27000427246094
2017-12-29,127.16999816894531
2018-01-02,128.3699951171875
2018-01-03,130.1300048828125
2018-01-04,132.16000366210938
2018-01-05,133.86000061035156
2018-01-08,134.77000427246094
2018-01-09,133.72000122070312
2018-01-10,136.39999389648438
2018-01-11,136.91000366210938
2018-01-12,137.1999969482422
2018-01-16,137.97000122070312
2018-01-17,140.72000122070312
2018-01-18,138.6300048828125
2018-01-19,139.85000610351562
2018-01-22,139.39999389648438
2018-01-23,139.27999877929688
2018-01-24,139.02999877929688
2018-01-25,138.17999267578125
2018-01-26,139.55999755859375
2018-01-29,139.52999877929688
2018-01-30,139.6199951171875
2018-01-31,137.9199981689453
2018-02-01,138.8000030517578
2018-02-02,136.6199951171875
2018-02-05,131.92999267578125
2018-02-06,138.75999450683594
2018-02-07,136.8800048828125
2018-02-08,134.42999267578125
2018-02-09,136.57000732421875
2018-02-12,138.75999450683594
2018-02-13,135.0399932861328
2018-02-14,135.47000122070312
2018-02-15,135.27999877929688
2018-02-16,136.1999969482422
2018-02-20,135.85000610351562
2018-02-21,134.8000030517578
2018-02-22,135.22999572753906
2018-02-23,137.02999877929688
2018-02-26,138.42999267578125
2018-02-27,136.02999877929688
2018-02-28,134.60000610351562
2018-03-01,130.38999938964844
2018-03-02,130.58999633789062
2018-03-05,130.97999572753906
2018-03-06,131.33999633789062
2018-03-07,129.82000732421875
2018-03-08,129.55999755859375
2018-03-09,129.6999969482422
2018-03-12,130.33999633789062
2018-03-13,130.0
2018-03-14,130.0
2018-03-15,130.38999938964844
2018-03-16,129.91000366210938
2018-03-19,127.83999633789062
2018-03-20,129.25
2018-03-21,129.27999877929688
2018-03-22,127.0199966430664
2018-03-23,124.5
2018-03-26,127.30999755859375
2018-03-27,128.0399932861328
2018-03-28,129.3699951171875
2018-03-29,130.3699951171875
2018-04-02,126.58999633789062
2018-04-03,128.35000610351562
2018-04-04,127.76000213623047
2018-04-05,127.4000015258789
2018-04-06,125.37000274658203
2018-04-09,126.16999816894531
2018-04-10,128.25999450683594
2018-04-11,127.80999755859375
2018-04-12,128.6300048828125
2018-04-13,128.52999877929688
2018-04-16,128.82000732421875
2018-04-17,129.33999633789062
2018-04-18,129.07000732421875
2018-04-19,128.49000549316406
2018-04-20,129.22999572753906
2018-04-23,129.07000732421875
2018-04-24,129.47000122070312
2018-04-25,131.10000610351562
2018-04-26,131.61000061035156
2018-04-27,131.00999450683594
2018-04-30,130.97999572753906
2018-05-01,130.97000122070312
2018-05-02,130.17999267578125
2018-05-03,130.11000061035156
2018-05-04,131.32000732421875
2018-05-07,131.50999450683594
2018-05-08,130.89999389648438
2018-05-09,136.2899932861328
2018-05-10,138.38999938964844
2018-05-11,138.07000732421875
2018-05-14,138.13999938964844
2018-05-15,136.22000122070312
2018-05-16,137.35000610351562
2018-05-17,136.6699981689453
2018-05-18,136.0399932861328
2018-05-21,136.4499969482422
2018-05-22,135.74000549316406
2018-05-23,134.8300018310547
2018-05-24,132.44000244140625
2018-05-25,129.9600067138672
2018-05-29,126.69999694824219
2018-05-30,127.2300033569336
2018-05-31,127.97000122070312
2018-06-01,131.30999755859375
2018-06-04,134.27999877929688
2018-06-05,133.4600067138672
2018-06-06,136.1699981689453
2018-06-07,136.4499969482422
2018-06-08,136.2100067138672
2018-06-11,137.14999389648438
2018-06-12,134.5500030517578
2018-06-13,135.41000366210938
2018-06-14,135.44000244140625
2018-06-15,135.80999755859375
2018-06-18,136.52000427246094
2018-06-19,136.14999389648438
2018-06-20,134.3699951171875
2018-06-21,132.66000366210938
2018-06-22,131.0
2018-06-25,128.57000732421875
2018-06-26,129.2100067138672
2018-06-27,127.11000061035156
2018-06-28,129.08999633789062
2018-06-29,128.80999755859375
2018-07-02,127.93000030517578
2018-07-03,127.4000015258789
2018-07-05,129.07000732421875
2018-07-06,129.55999755859375
2018-07-09,130.6999969482422
2018-07-10,129.27000427246094
2018-07-11,128.05999755859375
2018-07-12,129.17999267578125
2018-07-13,129.50999450683594
2018-07-16,129.50999450683594
2018-07-17,131.4499969482422
2018-07-18,132.08999633789062
2018-07-19,131.77000427246094
2018-07-20,131.8000030517578
2018-07-23,131.72999572753906
2018-07-24,132.5800018310547
2018-07-25,132.2100067138672
2018-07-26,133.3300018310547
2018-07-27,134.4600067138672
2018-07-30,134.97999572753906
2018-07-31,131.83999633789062
2018-08-01,131.6300048828125
2018-08-02,131.0500030517578
2018-08-03,131.3000030517578
2018-08-06,128.4499969482422
2018-08-07,128.52000427246094
2018-08-08,127.08999633789062
2018-08-09,125.44999694824219
2018-08-10,124.2300033569336
2018-08-13,123.5
2018-08-14,123.44999694824219
2018-08-15,121.8499984741211
2018-08-16,122.76000213623047
2018-08-17,123.27999877929688
2018-08-20,123.2699966430664
2018-08-21,122.56999969482422
2018-08-22,123.73999786376953
2018-08-23,122.26000213623047
2018-08-24,122.83999633789062
2018-08-27,126.47000122070312
2018-08-28,126.06999969482422
2018-08-29,127.4800033569336
2018-08-30,125.26000213623047
2018-08-31,124.08000183105469
2018-09-04,122.01000213623047
2018-09-05,120.47000122070312
2018-09-06,120.19000244140625
2018-09-07,119.30000305175781
2018-09-10,119.18000030517578
2018-09-11,119.91999816894531
2018-09-12,119.91000366210938
2018-09-13,121.95999908447266
2018-09-14,122.27999877929688
2018-09-17,122.4800033569336
2018-09-18,125.02999877929688
2018-09-19,125.31999969482422
2018-09-20,124.94999694824219
2018-09-21,124.72000122070312
2018-09-24,124.0
2018-09-25,124.87999725341797
2018-09-26,125.13999938964844
2018-09-27,124.61000061035156
2018-09-28,124.3499984741211
2018-10-01,124.81999969482422
2018-10-02,125.70999908447266
2018-10-03,122.69999694824219
2018-10-04,122.18000030517578
2018-10-05,121.5
2018-10-08,121.72000122070312
2018-10-09,119.91999816894531
2018-10-10,117.77999877929688
2018-10-11,116.75
2018-10-12,116.76000213623047
2018-10-15,115.62999725341797
2018-10-16,118.04000091552734
2018-10-17,117.7300033569336
2018-10-18,116.66999816894531
2018-10-19,116.31999969482422
2018-10-22,117.0999984741211
2018-10-23,117.97000122070312
2018-10-24,114.56999969482422
2018-10-25,116.66000366210938
2018-10-26,117.30000305175781
2018-10-29,115.30999755859375
2018-10-30,116.23999786376953
2018-10-31,117.05000305175781
2018-11-01,117.69999694824219
2018-11-02,115.45999908447266
2018-11-05,115.41000366210938
2018-11-06,117.58000183105469
2018-11-07,119.30999755859375
2018-11-08,117.29000091552734
2018-11-09,117.23999786376953
2018-11-12,115.56999969482422
2018-11-13,115.11000061035156
2018-11-14,116.87999725341797
2018-11-15,117.0
2018-11-16,116.95999908447266
2018-11-19,117.13999938964844
2018-11-20,117.29000091552734
2018-11-21,119.25
2018-11-23,119.70999908447266
2018-11-26,121.2699966430664
2018-11-27,121.0
2018-11-28,121.58000183105469
2018-11-29,121.77999877929688
2018-11-30,121.4800033569336
2018-12-03,123.51000213623047
2018-12-04,120.87999725341797
2018-12-06,121.83000183105469
2018-12-07,119.97000122070312
2018-12-10,120.94000244140625
2018-12-11,120.41000366210938
2018-12-12,121.88999938964844
2018-12-13,120.77999877929688
2018-12-14,120.0999984741211
2018-12-17,119.55000305175781
2018-12-18,120.01000213623047
2018-12-19,119.37999725341797
2018-12-20,118.44999694824219
2018-12-21,113.95999908447266
2018-12-24,111.80999755859375
2018-12-26,113.72000122070312
2018-12-27,115.4800033569336
2018-12-28,116.33999633789062
2018-12-31,116.08000183105469
2019-01-02,116.27999877929688
2019-01-03,114.6500015258789
2019-01-04,119.7300033569336
2019-01-07,121.27999877929688
2019-01-08,122.30999755859375
2019-01-09,122.91999816894531
2019-01-10,124.48999786376953
2019-01-11,125.06999969482422
2019-01-14,125.38999938964844
2019-01-15,126.27999877929688
2019-01-16,125.66000366210938
2019-01-17,124.91999816894531
2019-01-18,125.3499984741211
2019-01-22,123.5999984741211
2019-01-23,122.47000122070312
2019-01-24,122.83000183105469
2019-01-25,123.72000122070312
2019-01-28,122.4800033569336
2019-01-29,122.2699966430664
2019-01-30,123.04000091552734
2019-01-31,123.16999816894531
2019-02-01,122.0
2019-02-04,122.9000015258789
2019-02-05,123.47000122070312
2019-02-06,121.05000305175781
2019-02-07,118.11000061035156
2019-02-08,117.30999755859375
2019-02-11,117.1500015258789
2019-02-12,119.77999877929688
2019-02-13,119.62999725341797
2019-02-14,119.25
2019-02-15,121.1500015258789
2019-02-19,121.48999786376953
2019-02-20,122.79000091552734
2019-02-21,121.23999786376953
2019-02-22,121.81999969482422
2019-02-25,122.41000366210938
2019-02-26,123.2300033569336
2019-02-27,122.31999969482422
2019-02-28,121.04000091552734
2019-03-01,120.33999633789062
2019-03-04,118.41999816894531
2019-03-05,118.26000213623047
2019-03-06,117.9800033569336
2019-03-07,117.23999786376953
2019-03-08,117.70999908447266
2019-03-11,119.12999725341797
2019-03-12,118.76000213623047
2019-03-13,119.30999755859375
2019-03-14,117.69999694824219
2019-03-15,118.97000122070312
2019-03-18,119.51000213623047
2019-03-19,119.7300033569336
2019-03-20,119.66999816894531
2019-03-21,120.44000244140625
2019-03-22,120.22000122070312
2019-03-25,120.48999786376953
2019-03-26,121.7699966430664
2019-03-27,121.02999877929688
2019-03-28,119.06999969482422
2019-03-29,118.0199966430664
2019-04-01,119.87999725341797
2019-04-02,120.6500015258789
2019-04-03,121.06999969482422
2019-04-04,122.08000183105469
2019-04-05,122.54000091552734
2019-04-08,122.23999786376953
2019-04-09,122.05999755859375
2019-04-10,122.18000030517578
2019-04-11,121.04000091552734
2019-04-12,122.4000015258789
2019-04-15,121.97000122070312
2019-04-16,121.75
2019-04-17,124.08000183105469
2019-04-18,125.16000366210938
2019-04-22,124.16000366210938
2019-04-23,124.94000244140625
2019-04-24,122.87999725341797
2019-04-25,123.19000244140625
2019-04-26,123.62000274658203
2019-04-29,123.80999755859375
2019-04-30,123.5999984741211
2019-05-01,122.91999816894531
2019-05-02,122.58999633789062
2019-05-03,123.6500015258789
2019-05-06,122.9800033569336
2019-05-07,122.5
2019-05-08,121.76000213623047
2019-05-09,119.31999969482422
2019-05-10,119.2699966430664
2019-05-13,118.26000213623047
2019-05-14,119.06999969482422
2019-05-15,120.63999938964844
2019-05-16,119.9000015258789
2019-05-17,118.4000015258789
2019-05-20,118.11000061035156
2019-05-21,118.25
2019-05-22,117.31999969482422
2019-05-23,117.47000122070312
2019-05-24,118.55000305175781
2019-05-28,119.4000015258789
2019-05-29,119.55000305175781
2019-05-30,119.75
2019-05-31,117.58000183105469
2019-06-03,118.12999725341797
2019-06-04,119.54000091552734
2019-06-05,120.22000122070312
2019-06-06,121.30000305175781
2019-06-07,122.38999938964844
2019-06-10,123.48999786376953
2019-06-11,124.98999786376953
2019-06-12,125.68000030517578
2019-06-13,124.79000091552734
2019-06-14,124.38999938964844
2019-06-17,124.16999816894531
2019-06-18,125.37000274658203
2019-06-19,125.20999908447266
2019-06-20,125.80000305175781
2019-06-21,124.83000183105469
2019-06-24,124.79000091552734
2019-06-25,123.93000030517578
2019-06-26,123.29000091552734
2019-06-27,123.66999816894531
2019-06-28,123.98999786376953
2019-07-01,125.79000091552734
2019-07-02,127.0
2019-07-03,126.83000183105469
2019-07-05,126.56999969482422
2019-07-08,126.87000274658203
2019-07-09,126.9000015258789
2019-07-10,127.37999725341797
2019-07-11,126.75
2019-07-12,127.70999908447266
2019-07-15,127.62999725341797
2019-07-16,128.61000061035156
2019-07-17,129.36000061035156
2019-07-18,129.80999755859375
2019-07-19,130.1699981689453
2019-07-22,131.13999938964844
2019-07-23,131.75
2019-07-24,133.0
2019-07-25,132.5
2019-07-26,131.9499969482422
2019-07-29,131.72999572753906
2019-07-30,131.1300048828125
2019-07-31,129.0500030517578
2019-08-01,129.6199951171875
2019-08-02,128.9499969482422
2019-08-05,128.3000030517578
2019-08-06,127.05000305175781
2019-08-07,128.22000122070312
2019-08-08,129.35000610351562
2019-08-09,128.97999572753906
2019-08-12,128.22999572753906
2019-08-13,129.4199981689453
2019-08-14,126.4800033569336
2019-08-15,127.36000061035156
2019-08-16,128.7899932861328
2019-08-19,129.63999938964844
2019-08-20,129.02999877929688
2019-08-21,129.8800048828125
2019-08-22,129.64999389648438
2019-08-23,127.83000183105469
2019-08-26,130.77999877929688
2019-08-27,130.4600067138672
2019-08-28,130.2899932861328
2019-08-29,130.5
2019-08-30,130.6300048828125
2019-09-03,131.57000732421875
2019-09-04,132.10000610351562
2019-09-05,131.1699981689453
2019-09-06,132.0500030517578
2019-09-09,132.8300018310547
2019-09-10,133.6199951171875
2019-09-11,135.5500030517578
2019-09-12,135.7899932861328
2019-09-13,136.66000366210938
2019-09-16,135.94000244140625
2019-09-17,137.82000732421875
2019-09-18,137.0500030517578
2019-09-19,136.5500030517578
2019-09-20,136.55999755859375
2019-09-23,136.3699951171875
2019-09-24,137.41000366210938
2019-09-25,136.6199951171875
2019-09-26,138.32000732421875
2019-09-27,136.27999877929688
2019-09-30,134.49000549316406
2019-10-01,133.2899932861328
2019-10-02,131.47000122070312
2019-10-03,131.1999969482422
2019-10-04,131.82000732421875
2019-10-07,131.14999389648438
2019-10-08,131.42999267578125
2019-10-09,133.00999450683594
2019-10-10,132.64999389648438
2019-10-11,135.4499969482422
2019-10-14,135.07000732421875
2019-10-15,136.8699951171875
2019-10-16,136.75999450683594
2019-10-17,135.9499969482422
2019-10-18,135.77000427246094
2019-10-21,136.32000732421875
2019-10-22,136.35000610351562
2019-10-23,137.32000732421875
2019-10-24,138.14999389648438
2019-10-25,138.27999877929688
2019-10-28,138.33999633789062
2019-10-29,138.67999267578125
2019-10-30,139.02000427246094
2019-10-31,138.5500030517578
2019-11-01,139.8300018310547
2019-11-04,140.55999755859375
2019-11-05,140.74000549316406
2019-11-06,140.3699951171875
2019-11-07,142.86000061035156
2019-11-08,144.38999938964844
2019-11-11,145.05999755859375
2019-11-12,144.5399932861328
2019-11-13,144.55999755859375
2019-11-14,143.8699951171875
2019-11-15,144.27000427246094
2019-11-18,143.60000610351562
2019-11-19,142.85000610351562
2019-11-20,141.3699951171875
2019-11-21,142.13999938964844
2019-11-22,142.52999877929688
2019-11-25,142.5399932861328
2019-11-26,141.97000122070312
2019-11-27,141.66000366210938
2019-11-29,140.2100067138672
2019-12-02,140.27000427246094
2019-12-03,140.72999572753906
2019-12-04,143.3800048828125
2019-12-05,142.8300018310547
2019-12-06,142.77000427246094
2019-12-09,141.88999938964844
2019-12-10,141.17999267578125
2019-12-11,141.6199951171875
2019-12-12,141.60000610351562
2019-12-13,142.10000610351562
2019-12-16,142.52999877929688
2019-12-17,142.77000427246094
2019-12-18,142.38999938964844
2019-12-19,142.75999450683594
2019-12-20,141.97000122070312
2019-12-23,141.9600067138672
2019-12-24,141.33999633789062
2019-12-26,141.52999877929688
2019-12-27,141.27999877929688
2019-12-30,140.61000061035156
2019-12-31,140.5399932861328
2020-01-02,142.24000549316406
2020-01-03,140.75
2020-01-06,140.77000427246094
2020-01-07,141.50999450683594
2020-01-08,141.16000366210938
2020-01-09,140.50999450683594
2020-01-10,139.72999572753906
2020-01-13,140.55999755859375
2020-01-14,140.3699951171875
2020-01-15,139.36000061035156
2020-01-16,140.10000610351562
2020-01-17,140.0399932861328
2020-01-21,142.3800048828125
2020-01-22,141.55999755859375
2020-01-23,143.05999755859375
2020-01-24,142.75999450683594
2020-01-27,141.05999755859375
2020-01-28,142.5800018310547
2020-01-29,141.5500030517578
2020-01-30,141.0800018310547
2020-01-31,138.83999633789062
2020-02-03,138.9199981689453
2020-02-04,140.9499969482422
2020-02-05,141.72000122070312
2020-02-06,143.85000610351562
2020-02-07,142.33999633789062
2020-02-10,141.27999877929688
2020-02-11,142.11000061035156
2020-02-12,142.42999267578125
2020-02-13,141.10000610351562
2020-02-14,140.14999389648438
2020-02-18,139.3800048828125
2020-02-19,137.83999633789062
2020-02-20,139.11000061035156
2020-02-21,139.0399932861328
2020-02-24,134.49000549316406
2020-02-25,134.02999877929688
2020-02-26,135.1300048828125
2020-02-27,131.39999389648438
2020-02-28,130.75
2020-03-02,132.7100067138672
2020-03-03,130.9499969482422
2020-03-04,131.85000610351562
2020-03-05,129.1999969482422
2020-03-06,127.11000061035156
2020-03-09,122.79000091552734
2020-03-10,126.98999786376953
2020-03-11,122.79000091552734
2020-03-12,112.19999694824219
2020-03-13,116.2300033569336
2020-03-16,108.5
2020-03-17,118.88999938964844
2020-03-18,116.06999969482422
2020-03-19,118.2300033569336
2020-03-20,116.45999908447266
2020-03-23,111.0999984741211
2020-03-24,116.3499984741211
2020-03-25,121.29000091552734
2020-03-26,126.33999633789062
2020-03-27,127.23999786376953
2020-03-30,125.22000122070312
2020-03-31,119.94999694824219
2020-04-01,116.70999908447266
2020-04-02,117.81999969482422
2020-04-03,115.0
2020-04-06,122.41000366210938
2020-04-07,121.9000015258789
2020-04-08,123.54000091552734
2020-04-09,123.41000366210938
2020-04-13,121.26000213623047
2020-04-14,124.63999938964844
2020-04-15,122.98999786376953
2020-04-16,121.83000183105469
2020-04-17,124.61000061035156
2020-04-20,121.70999908447266
2020-04-21,120.66999816894531
2020-04-22,121.43000030517578
2020-04-23,121.68000030517578
2020-04-24,122.55999755859375
2020-04-27,124.19999694824219
2020-04-28,125.48999786376953
2020-04-29,127.86000061035156
2020-04-30,123.58999633789062
2020-05-01,121.12000274658203
2020-05-04,120.69999694824219
2020-05-05,121.95999908447266
2020-05-06,121.58000183105469
2020-05-07,121.5199966430664
2020-05-08,123.0999984741211
2020-05-11,123.62000274658203
2020-05-12,120.16999816894531
2020-05-13,117.76000213623047
2020-05-14,116.94999694824219
2020-05-15,116.88999938964844
2020-05-18,119.47000122070312
2020-05-19,118.22000122070312
2020-05-20,119.81999969482422
2020-05-21,117.94999694824219
2020-05-22,117.55999755859375
2020-05-26,124.11000061035156
2020-05-27,126.80999755859375
2020-05-28,128.36000061035156
2020-05-29,126.01000213623047
2020-06-01,126.44999694824219
2020-06-02,126.4800033569336
2020-06-03,128.72999572753906
2020-06-04,128.16000366210938
2020-06-05,131.10000610351562
2020-06-08,132.07000732421875
2020-06-09,130.58999633789062
2020-06-10,131.00999450683594
2020-06-11,124.44000244140625
2020-06-12,127.81999969482422
2020-06-15,127.4000015258789
2020-06-16,129.60000610351562
2020-06-17,128.8800048828125
2020-06-18,129.1199951171875
2020-06-19,127.79000091552734
2020-06-22,128.1300048828125
2020-06-23,129.08999633789062
2020-06-24,127.80000305175781
2020-06-25,127.7699966430664
2020-06-26,126.16000366210938
2020-06-29,126.88999938964844
2020-06-30,125.62999725341797
2020-07-01,124.13999938964844
2020-07-02,126.38999938964844
2020-07-06,126.9800033569336
2020-07-07,124.95999908447266
2020-07-08,125.41000366210938
2020-07-09,123.83000183105469
2020-07-10,124.97000122070312
2020-07-13,125.05000305175781
2020-07-14,126.43000030517578
2020-07-15,127.33000183105469
2020-07-16,126.48999786376953
2020-07-17,127.05999755859375
2020-07-20,127.27999877929688
2020-07-21,126.2699966430664
2020-07-22,126.26000213623047
2020-07-23,125.86000061035156
2020-07-24,125.20999908447266
2020-07-27,127.56999969482422
2020-07-28,125.45999908447266
2020-07-29,123.98999786376953
2020-07-30,122.45999908447266
2020-07-31,119.33999633789062
2020-08-03,120.94000244140625
2020-08-04,122.91000366210938
2020-08-05,124.81999969482422
2020-08-06,128.33999633789062
2020-08-07,129.9600067138672
2020-08-10,130.57000732421875
2020-08-11,133.75
2020-08-12,136.44000244140625
2020-08-13,135.63999938964844
2020-08-14,134.22000122070312
2020-08-17,135.52999877929688
2020-08-18,136.0800018310547
2020-08-19,135.2100067138672
2020-08-20,134.08999633789062
2020-08-21,133.8300018310547
2020-08-24,134.75999450683594
2020-08-25,134.7899932861328
2020-08-26,134.88999938964844
2020-08-27,133.55999755859375
2020-08-28,133.9199981689453
2020-08-31,132.42999267578125
2020-09-01,132.3000030517578
2020-09-02,132.52000427246094
2020-09-03,129.9499969482422
2020-09-04,133.1699981689453
2020-09-08,131.22999572753906
2020-09-09,131.1300048828125
2020-09-10,130.17999267578125
2020-09-11,131.33999633789062
2020-09-14,133.77000427246094
2020-09-15,134.02999877929688
2020-09-16,134.02999877929688
2020-09-17,135.0
2020-09-18,134.25
2020-09-21,131.22000122070312
2020-09-22,132.25
2020-09-23,133.2899932861328
2020-09-24,131.85000610351562
2020-09-25,132.97000122070312
2020-09-28,136.00999450683594
2020-09-29,134.25
2020-09-30,132.44000244140625
2020-10-01,132.42999267578125
2020-10-02,131.72999572753906
2020-10-05,132.10000610351562
2020-10-06,131.25999450683594
2020-10-07,132.42999267578125
2020-10-08,132.9499969482422
2020-10-09,132.0800018310547
2020-10-12,131.8000030517578
2020-10-13,132.64999389648438
2020-10-14,131.52999877929688
2020-10-15,131.1699981689453
2020-10-16,130.63999938964844
2020-10-19,130.8800048828125
2020-10-20,131.30999755859375
2020-10-21,133.13999938964844
2020-10-22,133.4199981689453
2020-10-23,133.27999877929688
2020-10-26,132.85000610351562
2020-10-27,132.4600067138672
2020-10-28,130.07000732421875
2020-10-29,131.35000610351562
2020-10-30,131.2899932861328
2020-11-02,133.24000549316406
2020-11-03,135.8699951171875
2020-11-04,134.16000366210938
2020-11-05,137.07000732421875
2020-11-06,137.1999969482422
2020-11-09,139.63999938964844
2020-11-10,139.94000244140625
2020-11-11,142.47999572753906
2020-11-12,139.69000244140625
2020-11-13,141.6199951171875
2020-11-16,144.11000061035156
2020-11-17,142.74000549316406
2020-11-18,141.8300018310547
2020-11-19,140.9199981689453
2020-11-20,142.1300048828125
2020-11-23,143.25999450683594
2020-11-24,143.83999633789062
2020-11-25,141.30999755859375
2020-11-27,140.16000366210938
2020-11-30,134.4600067138672
2020-12-01,136.13999938964844
2020-12-02,136.33999633789062
2020-12-03,136.85000610351562
2020-12-04,138.27999877929688
2020-12-07,138.14999389648438
2020-12-08,138.74000549316406
2020-12-09,140.8800048828125
2020-12-10,143.07000732421875
2020-12-11,151.0
2020-12-14,153.5800018310547
2020-12-15,152.85000610351562
2020-12-16,155.08999633789062
2020-12-17,154.63999938964844
2020-12-18,153.77000427246094
2020-12-21,151.77000427246094
2020-12-22,150.77000427246094
2020-12-23,151.16000366210938
2020-12-24,150.47000122070312
2020-12-28,152.60000610351562
2020-12-29,153.33999633789062
2020-12-30,154.08999633789062
